Verilog/Assignment/Tic tac toe/dump.vcd
$date
	Sun Jan 07 19:02:42 2024
$end
$version
	Icarus Verilog
$end
$timescale
	1ps
$end
$scope module tb $end
$scope module uut $end
$var wire 1 ! clk $end
$var wire 2 " gameWinner [1:0] $end
$var wire 4 # oPlayerPos [3:0] $end
$var wire 1 $ play $end
$var wire 1 % reset $end
$var wire 4 & xPlayerPos [3:0] $end
$var parameter 2 ' GAME_OVER $end
$var parameter 2 ( IDLE $end
$var parameter 2 ) O_PLAYER $end
$var parameter 2 * X_PLAYER $end
$var reg 2 + currentState [1:0] $end
$var reg 1 , illegalMoveoPlayer $end
$var reg 1 - illegalMovexPlayer $end
$var reg 4 . moveCount [3:0] $end
$var reg 2 / nextState [1:0] $end
$var reg 1 0 noVacantSpace $end
$var reg 1 1 result $end
$var reg 2 2 winner [1:0] $end
$var integer 32 3 i [31:0] $end
$var integer 32 4 j [31:0] $end
$upscope $end
$upscope $end
$scope module tb $end
$var wire 2 5 gameWinner [1:0] $end
$var reg 1 ! clk $end
$var reg 4 6 oPlayerPos [3:0] $end
$var reg 1 $ play $end
$var reg 1 % reset $end
$var reg 4 7 xPlayerPos [3:0] $end
$scope module uut $end
$upscope $end
$upscope $end
$enddefinitions $end
$comment Show the parameter values. $end
$dumpall
b10 *
b1 )
b0 (
b11 '
$end
#0
$dumpvars
bx 7
bx 6
b0 5
bx 4
b1001 3
b0 2
01
00
bx /
b0 .
x-
x,
b0 +
bx &
0%
x$
bx #
b0 "
1!
$end
#5000
b11 4
b11 3
b0 /
0!
#10000
1!
1$
#15000
b11 4
b11 3
b1 /
0!
#20000
b1 +
0,
1!
b101 #
b101 6
0$
#25000
1,
b11 4
b11 3
b1 .
b10 /
0!
#30000
b10 +
0-
1!
b1 &
b1 7
#35000
1-
b11 4
b11 3
b10 .
b1 /
0!
#40000
b1 +
0,
1!
b111 #
b111 6
#45000
1,
b11 4
b11 3
b11 .
b10 /
0!
#50000
b10 +
0-
1!
b11 &
b11 7
#55000
1-
b11 4
b11 3
b100 .
b1 /
0!
#60000
b1 +
0,
1!
b10 #
b10 6
#65000
1,
b11 4
b11 3
b101 .
b10 /
0!
#70000
b10 +
0-
1!
b110 &
b110 7
#75000
1-
b11 4
b11 3
b110 .
b1 /
0!
#80000
b1 +
0,
1!
b1000 #
b1000 6
#85000
1,
b11 4
b11 3
b111 .
b10 /
0!
#90000
0,
b1001 3
b0 .
b0 "
b0 5
b0 2
01
b0 +
0-
1!
b100 &
b100 7
#95000
b11 4
b11 3
b0 /
0!
#100000
1!
b1001 #
b1001 6
